…
Join the environment into a big tibble, cut off & sort
```{r}
series <- join_env(storage, by = "date") %>%
    filter(date >= as_date("2012-12-29")) %>%
    arrange(date)
#> Joining: spyy, iusq
```

Check contents
```{r}
storage[["iusq"]]
#> # A tibble: 3,608 × 3
#>    date        iusq  ACWI
#>    <date>     <dbl> <dbl>
#>  1 2025-12-09  108.  433.
#>  2 2025-12-08  108.  434.
#>  3 2025-12-05  108.  435.
#>  4 2025-12-04  108.  435.
#>  5 2025-12-03  108.  433.
#>  6 2025-12-02  107.  432.
#>  7 2025-12-01  107.  431.
#>  8 2025-11-28  107.  432.
#>  9 2025-11-27  107.  431.
#> 10 2025-11-26  107.  430.
#> # ℹ 3,598 more rows
fund_index_map
#>   spyy   iusq 
#> "ACWI" "ACWI"
series
#> # A tibble: 3,329 × 4
#>    date        spyy  iusq  ACWI
#>    <date>     <dbl> <dbl> <dbl>
#>  1 2012-12-31  76.7  29.2  115.
#>  2 2013-01-01  NA    29.2  115.
#>  3 2013-01-02  78.4  29.8  118.
#>  4 2013-01-03  78.3  29.8  118.
#>  5 2013-01-04  78.5  29.9  118.
#>  6 2013-01-07  78.3  29.8  118.
#>  7 2013-01-08  77.9  29.7  117.
#>  8 2013-01-09  78.2  29.8  118.
#>  9 2013-01-10  78.8  30.1  119.
#> 10 2013-01-11  79.0  30.1  119.
#> # ℹ 3,319 more rows
```
…
