fundsr: Rolling differences and Xetra liquidity plots • fundsr
…
# check contents
storage[["iusq"]]
#> # A tibble: 3,608 × 3
#>    date        iusq  ACWI
#>    <date>     <dbl> <dbl>
#>  1 2025-12-09  108.  433.
#>  2 2025-12-08  108.  434.
#>  3 2025-12-05  108.  435.
#>  4 2025-12-04  108.  435.
#>  5 2025-12-03  108.  433.
#>  6 2025-12-02  107.  432.
#>  7 2025-12-01  107.  431.
#>  8 2025-11-28  107.  432.
#>  9 2025-11-27  107.  431.
#> 10 2025-11-26  107.  430.
#> # ℹ 3,598 more rows
…
