fundsr-intro: Rolling differences and Xetra liquidity plots • fundsr
…
Join the environment into a big tibble, cut off & sort

series <- join_env(storage, by = "date") %>%
    filter(date >= as_date("2012-12-29")) %>%
    arrange(date)
#> Joining: spyy, iusq

Check contents

storage[["iusq"]]
#> # A tibble: 3,620 × 3
#>    date        iusq  ACWI
#>    <date>     <dbl> <dbl>
#>  1 2025-12-29  109.   NA 
#>  2 2025-12-24  109.  440.
#>  3 2025-12-23  109.  439.
#>  4 2025-12-22  109.  437.
#>  5 2025-12-19  108.  434.
#>  6 2025-12-18  107.  431.
#>  7 2025-12-17  106.  428.
#>  8 2025-12-16  107.  432.
#>  9 2025-12-15  108.  434.
#> 10 2025-12-12  108.  434.
#> # ℹ 3,610 more rows
series
#> # A tibble: 3,341 × 4
#>    date        spyy  iusq  ACWI
#>    <date>     <dbl> <dbl> <dbl>
#>  1 2012-12-31  76.7  29.2  115.
#>  2 2013-01-01  NA    29.2  115.
#>  3 2013-01-02  78.4  29.8  118.
#>  4 2013-01-03  78.3  29.8  118.
#>  5 2013-01-04  78.5  29.9  118.
#>  6 2013-01-07  78.3  29.8  118.
#>  7 2013-01-08  77.9  29.7  117.
#>  8 2013-01-09  78.2  29.8  118.
#>  9 2013-01-10  78.8  30.1  119.
#> 10 2013-01-11  79.0  30.1  119.
#> # ℹ 3,331 more rows
…
