…
Check contents.

``` r
series %>% filter(date >= as_date("2015-04-03"))
#> # A tibble: 2,763 × 4
#>    date        spyy  iusq  ACWI
#>    <date>     <dbl> <dbl> <dbl>
#>  1 2015-04-06   NA   38.2  153.
#>  2 2015-04-07  101.  38.5  154.
#>  3 2015-04-08  101.  38.6  154.
#>  4 2015-04-09  101.  38.7  154.
#>  5 2015-04-10  102.  38.9  155.
#>  6 2015-04-13  102.  38.8  155.
#>  7 2015-04-14  102.  38.9  155.
#>  8 2015-04-15  102.  39.0  156.
#>  9 2015-04-16  102.  39.1  156.
#> 10 2015-04-17  101.  38.7  155.
#> # ℹ 2,753 more rows
…
